台灣桃園機場出入境狀況與日本機場受災前後旅遊人數之變化
…
資料清洗

#去除不需要的欄位以及中文名稱
X0605_0607<-X0605_0607[,c(-4,-11,-13,-14,-17,-18)] 
#新增欄位名稱
colnames(X0605_0607)=c("terminals","species","airline_id","flight","gate",
                       "scheduled_date","scheduled_time","expected_date","expected_time",
                       "destination","model","other destination","baggage claim","counter")
#依照航空公司代碼簡單排序資料
X0605_0607<-X0605_0607[order(X0605_0607$airline_id),]

X0605_0607

## # A tibble: 3,133 × 14
##    terminals species airline_id flight  gate scheduled_date scheduled_time
##        <int>   <chr>      <chr>  <chr> <chr>         <date>         <time>
## 1          1       A         3K    723    B3     2017-06-05       06:00:00
## 2          1       A         3K    721    A2     2017-06-05       11:50:00
## 3          1       A         3K    724    B1     2017-06-05       14:25:00
## 4          1       A         3K    722    A4     2017-06-05       19:25:00
## 5          1       A         3K    721    B9     2017-06-06       11:50:00
## 6          1       A         3K    722    B1     2017-06-06       19:25:00
## 7          1       A         3K    723  <NA>     2017-06-07       06:00:00
## 8          1       A         3K    721  <NA>     2017-06-07       11:50:00
## 9          1       A         3K    724  <NA>     2017-06-07       14:25:00
## 10         1       A         3K    722  <NA>     2017-06-07       19:25:00
## # ... with 3,123 more rows, and 7 more variables: expected_date <date>,
## #   expected_time <time>, destination <chr>, model <chr>, `other
## #   destination` <chr>, `baggage claim` <chr>, counter <chr>
…
